-- Merging decision tree log ---
manifest
ADDED from /Users/akramhussain/Desktop/Work/Android/Android/EposApp/app/src/main/AndroidManifest.xml:2:1-146:12
INJECTED from /Users/akramhussain/Desktop/Work/Android/Android/EposApp/app/src/main/AndroidManifest.xml:2:1-146:12
INJECTED from /Users/akramhussain/Desktop/Work/Android/Android/EposApp/app/src/main/AndroidManifest.xml:2:1-146:12
INJECTED from /Users/akramhussain/Desktop/Work/Android/Android/EposApp/app/src/main/AndroidManifest.xml:2:1-146:12
MERGED from [androidx.appcompat:appcompat:1.1.0] /Users/akramhussain/.gradle/caches/transforms-2/files-2.1/6119d746697059b7e1b74aab4d181f56/appcompat-1.1.0/AndroidManifest.xml:17:1-24:12
MERGED from [androidx.fragment:fragment:1.1.0] /Users/akramhussain/.gradle/caches/transforms-2/files-2.1/0362ff4d8672321347a402c32368f192/fragment-1.1.0/AndroidManifest.xml:17:1-24:12
MERGED from [androidx.appcompat:appcompat-resources:1.1.0] /Users/akramhussain/.gradle/caches/transforms-2/files-2.1/ddf6a25e6e3e5e2af441269b48288beb/appcompat-resources-1.1.0/AndroidManifest.xml:17:1-24:12
MERGED from [androidx.drawerlayout:drawerlayout:1.0.0] /Users/akramhussain/.gradle/caches/transforms-2/files-2.1/00bc847ce5b9e3ce7b40d465bffbf9e9/drawerlayout-1.0.0/AndroidManifest.xml:17:1-22:12
MERGED from [androidx.viewpager:viewpager:1.0.0] /Users/akramhussain/.gradle/caches/transforms-2/files-2.1/4932f7e67b26f042b51fa62f1aa4816d/viewpager-1.0.0/AndroidManifest.xml:17:1-22:12
MERGED from [androidx.loader:loader:1.0.0] /Users/akramhussain/.gradle/caches/transforms-2/files-2.1/5276819c062a92c029464122749254f1/loader-1.0.0/AndroidManifest.xml:17:1-22:12
MERGED from [androidx.activity:activity:1.0.0] /Users/akramhussain/.gradle/caches/transforms-2/files-2.1/dbbcc99072b5616db9e0106b8ed65934/activity-1.0.0/AndroidManifest.xml:17:1-24:12
MERGED from [androidx.vectordrawable:vectordrawable-animated:1.1.0] /Users/akramhussain/.gradle/caches/transforms-2/files-2.1/d1ca7cd3905794bed09cb92934ccd6c2/vectordrawable-animated-1.1.0/AndroidManifest.xml:17:1-24:12
MERGED from [androidx.vectordrawable:vectordrawable:1.1.0] /Users/akramhussain/.gradle/caches/transforms-2/files-2.1/4276267baf989d651cf25177c247ad49/vectordrawable-1.1.0/AndroidManifest.xml:17:1-24:12
MERGED from [androidx.customview:customview:1.0.0] /Users/akramhussain/.gradle/caches/transforms-2/files-2.1/a3c457ded457b98b207b4f227d629399/customview-1.0.0/AndroidManifest.xml:17:1-22:12
MERGED from [androidx.core:core:1.1.0] /Users/akramhussain/.gradle/caches/transforms-2/files-2.1/e9dab9c67c1ee3668e0bbf86c6d8cbd8/core-1.1.0/AndroidManifest.xml:17:1-26:12
MERGED from [androidx.cursoradapter:cursoradapter:1.0.0] /Users/akramhussain/.gradle/caches/transforms-2/files-2.1/fb2fbe77879a57ea0c5dfd6fe59ba874/cursoradapter-1.0.0/AndroidManifest.xml:17:1-22:12
MERGED from [androidx.versionedparcelable:versionedparcelable:1.1.0] /Users/akramhussain/.gradle/caches/transforms-2/files-2.1/78be57497ca2a8dd090798c529f3e53d/versionedparcelable-1.1.0/AndroidManifest.xml:17:1-27:12
MERGED from [androidx.lifecycle:lifecycle-runtime:2.1.0] /Users/akramhussain/.gradle/caches/transforms-2/files-2.1/ffa46f3d6480310395b7b525cf59ccde/lifecycle-runtime-2.1.0/AndroidManifest.xml:17:1-22:12
MERGED from [androidx.lifecycle:lifecycle-viewmodel:2.1.0] /Users/akramhussain/.gradle/caches/transforms-2/files-2.1/64ed055c454b36433d45a77285ee24d6/lifecycle-viewmodel-2.1.0/AndroidManifest.xml:17:1-22:12
MERGED from [androidx.savedstate:savedstate:1.0.0] /Users/akramhussain/.gradle/caches/transforms-2/files-2.1/3819fb4fef2e012192b32762458ba145/savedstate-1.0.0/AndroidManifest.xml:17:1-24:12
MERGED from [androidx.interpolator:interpolator:1.0.0] /Users/akramhussain/.gradle/caches/transforms-2/files-2.1/3a992d8307f21a8f15eb649383ba6a6a/interpolator-1.0.0/AndroidManifest.xml:17:1-22:12
MERGED from [androidx.lifecycle:lifecycle-livedata:2.0.0] /Users/akramhussain/.gradle/caches/transforms-2/files-2.1/63647da4654da12a6f2785cfbbad8123/lifecycle-livedata-2.0.0/AndroidManifest.xml:17:1-22:12
MERGED from [androidx.lifecycle:lifecycle-livedata-core:2.0.0] /Users/akramhussain/.gradle/caches/transforms-2/files-2.1/733fc1d306cee2c05d3e1fb0b7527020/lifecycle-livedata-core-2.0.0/AndroidManifest.xml:17:1-22:12
MERGED from [androidx.arch.core:core-runtime:2.0.0] /Users/akramhussain/.gradle/caches/transforms-2/files-2.1/fdd65d8b6066fd289a68b42931dc03a2/core-runtime-2.0.0/AndroidManifest.xml:17:1-22:12
INJECTED from /Users/akramhussain/Desktop/Work/Android/Android/EposApp/app/src/main/AndroidManifest.xml:2:1-146:12
INJECTED from /Users/akramhussain/Desktop/Work/Android/Android/EposApp/app/src/main/AndroidManifest.xml:2:1-146:12
INJECTED from /Users/akramhussain/Desktop/Work/Android/Android/EposApp/app/src/main/AndroidManifest.xml:2:1-146:12
	package
		ADDED from /Users/akramhussain/Desktop/Work/Android/Android/EposApp/app/src/main/AndroidManifest.xml:3:5-34
		INJECTED from /Users/akramhussain/Desktop/Work/Android/Android/EposApp/app/src/main/AndroidManifest.xml
		INJECTED from /Users/akramhussain/Desktop/Work/Android/Android/EposApp/app/src/main/AndroidManifest.xml
	android:versionName
		ADDED from /Users/akramhussain/Desktop/Work/Android/Android/EposApp/app/src/main/AndroidManifest.xml:5:5-30
		INJECTED from /Users/akramhussain/Desktop/Work/Android/Android/EposApp/app/src/main/AndroidManifest.xml
		INJECTED from /Users/akramhussain/Desktop/Work/Android/Android/EposApp/app/src/main/AndroidManifest.xml
	xmlns:android
		ADDED from /Users/akramhussain/Desktop/Work/Android/Android/EposApp/app/src/main/AndroidManifest.xml:2:11-69
	android:versionCode
		ADDED from /Users/akramhussain/Desktop/Work/Android/Android/EposApp/app/src/main/AndroidManifest.xml:4:5-28
		INJECTED from /Users/akramhussain/Desktop/Work/Android/Android/EposApp/app/src/main/AndroidManifest.xml
		INJECTED from /Users/akramhussain/Desktop/Work/Android/Android/EposApp/app/src/main/AndroidManifest.xml
uses-permission#android.permission.INTERNET
ADDED from /Users/akramhussain/Desktop/Work/Android/Android/EposApp/app/src/main/AndroidManifest.xml:7:5-66
	android:name
		ADDED from /Users/akramhussain/Desktop/Work/Android/Android/EposApp/app/src/main/AndroidManifest.xml:7:22-64
application
ADDED from /Users/akramhussain/Desktop/Work/Android/Android/EposApp/app/src/main/AndroidManifest.xml:9:5-144:19
MERGED from [androidx.core:core:1.1.0] /Users/akramhussain/.gradle/caches/transforms-2/files-2.1/e9dab9c67c1ee3668e0bbf86c6d8cbd8/core-1.1.0/AndroidManifest.xml:24:5-89
MERGED from [androidx.core:core:1.1.0] /Users/akramhussain/.gradle/caches/transforms-2/files-2.1/e9dab9c67c1ee3668e0bbf86c6d8cbd8/core-1.1.0/AndroidManifest.xml:24:5-89
MERGED from [androidx.versionedparcelable:versionedparcelable:1.1.0] /Users/akramhussain/.gradle/caches/transforms-2/files-2.1/78be57497ca2a8dd090798c529f3e53d/versionedparcelable-1.1.0/AndroidManifest.xml:24:5-25:19
MERGED from [androidx.versionedparcelable:versionedparcelable:1.1.0] /Users/akramhussain/.gradle/caches/transforms-2/files-2.1/78be57497ca2a8dd090798c529f3e53d/versionedparcelable-1.1.0/AndroidManifest.xml:24:5-25:19
	android:appComponentFactory
		ADDED from [androidx.core:core:1.1.0] /Users/akramhussain/.gradle/caches/transforms-2/files-2.1/e9dab9c67c1ee3668e0bbf86c6d8cbd8/core-1.1.0/AndroidManifest.xml:24:18-86
	android:supportsRtl
		ADDED from /Users/akramhussain/Desktop/Work/Android/Android/EposApp/app/src/main/AndroidManifest.xml:13:9-35
	android:label
		ADDED from /Users/akramhussain/Desktop/Work/Android/Android/EposApp/app/src/main/AndroidManifest.xml:12:9-42
	android:allowBackup
		ADDED from /Users/akramhussain/Desktop/Work/Android/Android/EposApp/app/src/main/AndroidManifest.xml:10:9-35
	android:theme
		ADDED from /Users/akramhussain/Desktop/Work/Android/Android/EposApp/app/src/main/AndroidManifest.xml:11:9-56
	android:name
		ADDED from /Users/akramhussain/Desktop/Work/Android/Android/EposApp/app/src/main/AndroidManifest.xml:14:9-51
uses-library#org.apache.http.legacy
ADDED from /Users/akramhussain/Desktop/Work/Android/Android/EposApp/app/src/main/AndroidManifest.xml:15:9-17:40
	android:required
		ADDED from /Users/akramhussain/Desktop/Work/Android/Android/EposApp/app/src/main/AndroidManifest.xml:17:13-37
	android:name
		ADDED from /Users/akramhussain/Desktop/Work/Android/Android/EposApp/app/src/main/AndroidManifest.xml:16:13-50
activity#com.prophet.eposapp.MainActivity
ADDED from /Users/akramhussain/Desktop/Work/Android/Android/EposApp/app/src/main/AndroidManifest.xml:19:9-24:20
	android:name
		ADDED from /Users/akramhussain/Desktop/Work/Android/Android/EposApp/app/src/main/AndroidManifest.xml:19:19-66
intent-filter#action:name:android.intent.action.MAIN+category:name:android.intent.category.LAUNCHER
ADDED from /Users/akramhussain/Desktop/Work/Android/Android/EposApp/app/src/main/AndroidManifest.xml:20:13-23:29
action#android.intent.action.MAIN
ADDED from /Users/akramhussain/Desktop/Work/Android/Android/EposApp/app/src/main/AndroidManifest.xml:21:17-69
	android:name
		ADDED from /Users/akramhussain/Desktop/Work/Android/Android/EposApp/app/src/main/AndroidManifest.xml:21:25-66
category#android.intent.category.LAUNCHER
ADDED from /Users/akramhussain/Desktop/Work/Android/Android/EposApp/app/src/main/AndroidManifest.xml:22:17-77
	android:name
		ADDED from /Users/akramhussain/Desktop/Work/Android/Android/EposApp/app/src/main/AndroidManifest.xml:22:27-74
activity#com.prophet.eposapp.views.LoginActivity
ADDED from /Users/akramhussain/Desktop/Work/Android/Android/EposApp/app/src/main/AndroidManifest.xml:25:9-33:20
	android:screenOrientation
		ADDED from /Users/akramhussain/Desktop/Work/Android/Android/EposApp/app/src/main/AndroidManifest.xml:27:5-41
	android:parentActivityName
		ADDED from /Users/akramhussain/Desktop/Work/Android/Android/EposApp/app/src/main/AndroidManifest.xml:29:13-74
	android:label
		ADDED from /Users/akramhussain/Desktop/Work/Android/Android/EposApp/app/src/main/AndroidManifest.xml:28:13-29
	android:name
		ADDED from /Users/akramhussain/Desktop/Work/Android/Android/EposApp/app/src/main/AndroidManifest.xml:26:13-67
meta-data#android.support.PARENT_ACTIVITY
ADDED from /Users/akramhussain/Desktop/Work/Android/Android/EposApp/app/src/main/AndroidManifest.xml:30:13-32:68
	android:value
		ADDED from /Users/akramhussain/Desktop/Work/Android/Android/EposApp/app/src/main/AndroidManifest.xml:32:17-65
	android:name
		ADDED from /Users/akramhussain/Desktop/Work/Android/Android/EposApp/app/src/main/AndroidManifest.xml:31:17-63
activity#com.prophet.eposapp.views.MainMenuActivity
ADDED from /Users/akramhussain/Desktop/Work/Android/Android/EposApp/app/src/main/AndroidManifest.xml:34:9-42:20
	android:screenOrientation
		ADDED from /Users/akramhussain/Desktop/Work/Android/Android/EposApp/app/src/main/AndroidManifest.xml:36:5-41
	android:parentActivityName
		ADDED from /Users/akramhussain/Desktop/Work/Android/Android/EposApp/app/src/main/AndroidManifest.xml:38:13-74
	android:label
		ADDED from /Users/akramhussain/Desktop/Work/Android/Android/EposApp/app/src/main/AndroidManifest.xml:37:13-29
	android:name
		ADDED from /Users/akramhussain/Desktop/Work/Android/Android/EposApp/app/src/main/AndroidManifest.xml:35:13-70
activity#com.prophet.eposapp.views.DisplayTablesActivity
ADDED from /Users/akramhussain/Desktop/Work/Android/Android/EposApp/app/src/main/AndroidManifest.xml:43:9-51:20
	android:screenOrientation
		ADDED from /Users/akramhussain/Desktop/Work/Android/Android/EposApp/app/src/main/AndroidManifest.xml:45:5-41
	android:parentActivityName
		ADDED from /Users/akramhussain/Desktop/Work/Android/Android/EposApp/app/src/main/AndroidManifest.xml:47:13-74
	android:label
		ADDED from /Users/akramhussain/Desktop/Work/Android/Android/EposApp/app/src/main/AndroidManifest.xml:46:13-29
	android:name
		ADDED from /Users/akramhussain/Desktop/Work/Android/Android/EposApp/app/src/main/AndroidManifest.xml:44:13-75
activity#com.prophet.eposapp.views.ProdOptionsActivity
ADDED from /Users/akramhussain/Desktop/Work/Android/Android/EposApp/app/src/main/AndroidManifest.xml:52:9-61:20
	android:screenOrientation
		ADDED from /Users/akramhussain/Desktop/Work/Android/Android/EposApp/app/src/main/AndroidManifest.xml:55:5-41
	android:parentActivityName
		ADDED from /Users/akramhussain/Desktop/Work/Android/Android/EposApp/app/src/main/AndroidManifest.xml:57:13-78
	android:label
		ADDED from /Users/akramhussain/Desktop/Work/Android/Android/EposApp/app/src/main/AndroidManifest.xml:56:13-29
	android:theme
		ADDED from /Users/akramhussain/Desktop/Work/Android/Android/EposApp/app/src/main/AndroidManifest.xml:54:13-61
	android:name
		ADDED from /Users/akramhussain/Desktop/Work/Android/Android/EposApp/app/src/main/AndroidManifest.xml:53:13-73
activity#com.prophet.eposapp.views.ProdToppingsActivity
ADDED from /Users/akramhussain/Desktop/Work/Android/Android/EposApp/app/src/main/AndroidManifest.xml:62:9-71:20
	android:screenOrientation
		ADDED from /Users/akramhussain/Desktop/Work/Android/Android/EposApp/app/src/main/AndroidManifest.xml:65:5-41
	android:parentActivityName
		ADDED from /Users/akramhussain/Desktop/Work/Android/Android/EposApp/app/src/main/AndroidManifest.xml:67:13-78
	android:label
		ADDED from /Users/akramhussain/Desktop/Work/Android/Android/EposApp/app/src/main/AndroidManifest.xml:66:13-29
	android:theme
		ADDED from /Users/akramhussain/Desktop/Work/Android/Android/EposApp/app/src/main/AndroidManifest.xml:64:13-61
	android:name
		ADDED from /Users/akramhussain/Desktop/Work/Android/Android/EposApp/app/src/main/AndroidManifest.xml:63:13-74
activity#com.prophet.eposapp.views.ProductOfferActivity
ADDED from /Users/akramhussain/Desktop/Work/Android/Android/EposApp/app/src/main/AndroidManifest.xml:72:9-80:20
	android:screenOrientation
		ADDED from /Users/akramhussain/Desktop/Work/Android/Android/EposApp/app/src/main/AndroidManifest.xml:74:5-41
	android:parentActivityName
		ADDED from /Users/akramhussain/Desktop/Work/Android/Android/EposApp/app/src/main/AndroidManifest.xml:76:13-78
	android:label
		ADDED from /Users/akramhussain/Desktop/Work/Android/Android/EposApp/app/src/main/AndroidManifest.xml:75:13-29
	android:name
		ADDED from /Users/akramhussain/Desktop/Work/Android/Android/EposApp/app/src/main/AndroidManifest.xml:73:13-74
activity#com.prophet.eposapp.views.ProductOfferItemsActivity
ADDED from /Users/akramhussain/Desktop/Work/Android/Android/EposApp/app/src/main/AndroidManifest.xml:81:9-90:20
	android:screenOrientation
		ADDED from /Users/akramhussain/Desktop/Work/Android/Android/EposApp/app/src/main/AndroidManifest.xml:84:5-41
	android:parentActivityName
		ADDED from /Users/akramhussain/Desktop/Work/Android/Android/EposApp/app/src/main/AndroidManifest.xml:86:13-78
	android:label
		ADDED from /Users/akramhussain/Desktop/Work/Android/Android/EposApp/app/src/main/AndroidManifest.xml:85:13-29
	android:theme
		ADDED from /Users/akramhussain/Desktop/Work/Android/Android/EposApp/app/src/main/AndroidManifest.xml:83:13-61
	android:name
		ADDED from /Users/akramhussain/Desktop/Work/Android/Android/EposApp/app/src/main/AndroidManifest.xml:82:13-79
activity#com.prophet.eposapp.views.EditItemActivity
ADDED from /Users/akramhussain/Desktop/Work/Android/Android/EposApp/app/src/main/AndroidManifest.xml:91:9-100:20
	android:screenOrientation
		ADDED from /Users/akramhussain/Desktop/Work/Android/Android/EposApp/app/src/main/AndroidManifest.xml:94:5-41
	android:parentActivityName
		ADDED from /Users/akramhussain/Desktop/Work/Android/Android/EposApp/app/src/main/AndroidManifest.xml:96:13-78
	android:label
		ADDED from /Users/akramhussain/Desktop/Work/Android/Android/EposApp/app/src/main/AndroidManifest.xml:95:13-29
	android:theme
		ADDED from /Users/akramhussain/Desktop/Work/Android/Android/EposApp/app/src/main/AndroidManifest.xml:93:13-61
	android:name
		ADDED from /Users/akramhussain/Desktop/Work/Android/Android/EposApp/app/src/main/AndroidManifest.xml:92:13-70
activity#com.prophet.eposapp.views.SplitBillActivity
ADDED from /Users/akramhussain/Desktop/Work/Android/Android/EposApp/app/src/main/AndroidManifest.xml:102:9-110:20
	android:screenOrientation
		ADDED from /Users/akramhussain/Desktop/Work/Android/Android/EposApp/app/src/main/AndroidManifest.xml:104:5-41
	android:parentActivityName
		ADDED from /Users/akramhussain/Desktop/Work/Android/Android/EposApp/app/src/main/AndroidManifest.xml:106:13-78
	android:label
		ADDED from /Users/akramhussain/Desktop/Work/Android/Android/EposApp/app/src/main/AndroidManifest.xml:105:13-29
	android:name
		ADDED from /Users/akramhussain/Desktop/Work/Android/Android/EposApp/app/src/main/AndroidManifest.xml:103:13-71
activity#com.prophet.eposapp.views.TableCoversActivity
ADDED from /Users/akramhussain/Desktop/Work/Android/Android/EposApp/app/src/main/AndroidManifest.xml:111:9-120:20
	android:screenOrientation
		ADDED from /Users/akramhussain/Desktop/Work/Android/Android/EposApp/app/src/main/AndroidManifest.xml:114:5-41
	android:parentActivityName
		ADDED from /Users/akramhussain/Desktop/Work/Android/Android/EposApp/app/src/main/AndroidManifest.xml:116:13-83
	android:label
		ADDED from /Users/akramhussain/Desktop/Work/Android/Android/EposApp/app/src/main/AndroidManifest.xml:115:13-29
	android:theme
		ADDED from /Users/akramhussain/Desktop/Work/Android/Android/EposApp/app/src/main/AndroidManifest.xml:113:13-61
	android:name
		ADDED from /Users/akramhussain/Desktop/Work/Android/Android/EposApp/app/src/main/AndroidManifest.xml:112:13-73
activity#com.prophet.eposapp.views.PayActivity
ADDED from /Users/akramhussain/Desktop/Work/Android/Android/EposApp/app/src/main/AndroidManifest.xml:121:9-129:20
	android:screenOrientation
		ADDED from /Users/akramhussain/Desktop/Work/Android/Android/EposApp/app/src/main/AndroidManifest.xml:123:5-41
	android:parentActivityName
		ADDED from /Users/akramhussain/Desktop/Work/Android/Android/EposApp/app/src/main/AndroidManifest.xml:125:13-78
	android:label
		ADDED from /Users/akramhussain/Desktop/Work/Android/Android/EposApp/app/src/main/AndroidManifest.xml:124:13-29
	android:name
		ADDED from /Users/akramhussain/Desktop/Work/Android/Android/EposApp/app/src/main/AndroidManifest.xml:122:13-65
activity#com.prophet.eposapp.views.SplitPayActivity
ADDED from /Users/akramhussain/Desktop/Work/Android/Android/EposApp/app/src/main/AndroidManifest.xml:130:9-139:20
	android:screenOrientation
		ADDED from /Users/akramhussain/Desktop/Work/Android/Android/EposApp/app/src/main/AndroidManifest.xml:133:5-41
	android:parentActivityName
		ADDED from /Users/akramhussain/Desktop/Work/Android/Android/EposApp/app/src/main/AndroidManifest.xml:135:13-73
	android:label
		ADDED from /Users/akramhussain/Desktop/Work/Android/Android/EposApp/app/src/main/AndroidManifest.xml:134:13-29
	android:theme
		ADDED from /Users/akramhussain/Desktop/Work/Android/Android/EposApp/app/src/main/AndroidManifest.xml:132:5-53
	android:name
		ADDED from /Users/akramhussain/Desktop/Work/Android/Android/EposApp/app/src/main/AndroidManifest.xml:131:13-70
uses-sdk
INJECTED from /Users/akramhussain/Desktop/Work/Android/Android/EposApp/app/src/main/AndroidManifest.xml reason: use-sdk injection requested
INJECTED from /Users/akramhussain/Desktop/Work/Android/Android/EposApp/app/src/main/AndroidManifest.xml
INJECTED from /Users/akramhussain/Desktop/Work/Android/Android/EposApp/app/src/main/AndroidManifest.xml
MERGED from [androidx.appcompat:appcompat:1.1.0] /Users/akramhussain/.gradle/caches/transforms-2/files-2.1/6119d746697059b7e1b74aab4d181f56/appcompat-1.1.0/AndroidManifest.xml:20:5-22:41
MERGED from [androidx.appcompat:appcompat:1.1.0] /Users/akramhussain/.gradle/caches/transforms-2/files-2.1/6119d746697059b7e1b74aab4d181f56/appcompat-1.1.0/AndroidManifest.xml:20:5-22:41
MERGED from [androidx.fragment:fragment:1.1.0] /Users/akramhussain/.gradle/caches/transforms-2/files-2.1/0362ff4d8672321347a402c32368f192/fragment-1.1.0/AndroidManifest.xml:20:5-22:41
MERGED from [androidx.fragment:fragment:1.1.0] /Users/akramhussain/.gradle/caches/transforms-2/files-2.1/0362ff4d8672321347a402c32368f192/fragment-1.1.0/AndroidManifest.xml:20:5-22:41
MERGED from [androidx.appcompat:appcompat-resources:1.1.0] /Users/akramhussain/.gradle/caches/transforms-2/files-2.1/ddf6a25e6e3e5e2af441269b48288beb/appcompat-resources-1.1.0/AndroidManifest.xml:20:5-22:41
MERGED from [androidx.appcompat:appcompat-resources:1.1.0] /Users/akramhussain/.gradle/caches/transforms-2/files-2.1/ddf6a25e6e3e5e2af441269b48288beb/appcompat-resources-1.1.0/AndroidManifest.xml:20:5-22:41
MERGED from [androidx.drawerlayout:drawerlayout:1.0.0] /Users/akramhussain/.gradle/caches/transforms-2/files-2.1/00bc847ce5b9e3ce7b40d465bffbf9e9/drawerlayout-1.0.0/AndroidManifest.xml:20:5-44
MERGED from [androidx.drawerlayout:drawerlayout:1.0.0] /Users/akramhussain/.gradle/caches/transforms-2/files-2.1/00bc847ce5b9e3ce7b40d465bffbf9e9/drawerlayout-1.0.0/AndroidManifest.xml:20:5-44
MERGED from [androidx.viewpager:viewpager:1.0.0] /Users/akramhussain/.gradle/caches/transforms-2/files-2.1/4932f7e67b26f042b51fa62f1aa4816d/viewpager-1.0.0/AndroidManifest.xml:20:5-44
MERGED from [androidx.viewpager:viewpager:1.0.0] /Users/akramhussain/.gradle/caches/transforms-2/files-2.1/4932f7e67b26f042b51fa62f1aa4816d/viewpager-1.0.0/AndroidManifest.xml:20:5-44
MERGED from [androidx.loader:loader:1.0.0] /Users/akramhussain/.gradle/caches/transforms-2/files-2.1/5276819c062a92c029464122749254f1/loader-1.0.0/AndroidManifest.xml:20:5-44
MERGED from [androidx.loader:loader:1.0.0] /Users/akramhussain/.gradle/caches/transforms-2/files-2.1/5276819c062a92c029464122749254f1/loader-1.0.0/AndroidManifest.xml:20:5-44
MERGED from [androidx.activity:activity:1.0.0] /Users/akramhussain/.gradle/caches/transforms-2/files-2.1/dbbcc99072b5616db9e0106b8ed65934/activity-1.0.0/AndroidManifest.xml:20:5-22:41
MERGED from [androidx.activity:activity:1.0.0] /Users/akramhussain/.gradle/caches/transforms-2/files-2.1/dbbcc99072b5616db9e0106b8ed65934/activity-1.0.0/AndroidManifest.xml:20:5-22:41
MERGED from [androidx.vectordrawable:vectordrawable-animated:1.1.0] /Users/akramhussain/.gradle/caches/transforms-2/files-2.1/d1ca7cd3905794bed09cb92934ccd6c2/vectordrawable-animated-1.1.0/AndroidManifest.xml:20:5-22:41
MERGED from [androidx.vectordrawable:vectordrawable-animated:1.1.0] /Users/akramhussain/.gradle/caches/transforms-2/files-2.1/d1ca7cd3905794bed09cb92934ccd6c2/vectordrawable-animated-1.1.0/AndroidManifest.xml:20:5-22:41
MERGED from [androidx.vectordrawable:vectordrawable:1.1.0] /Users/akramhussain/.gradle/caches/transforms-2/files-2.1/4276267baf989d651cf25177c247ad49/vectordrawable-1.1.0/AndroidManifest.xml:20:5-22:41
MERGED from [androidx.vectordrawable:vectordrawable:1.1.0] /Users/akramhussain/.gradle/caches/transforms-2/files-2.1/4276267baf989d651cf25177c247ad49/vectordrawable-1.1.0/AndroidManifest.xml:20:5-22:41
MERGED from [androidx.customview:customview:1.0.0] /Users/akramhussain/.gradle/caches/transforms-2/files-2.1/a3c457ded457b98b207b4f227d629399/customview-1.0.0/AndroidManifest.xml:20:5-44
MERGED from [androidx.customview:customview:1.0.0] /Users/akramhussain/.gradle/caches/transforms-2/files-2.1/a3c457ded457b98b207b4f227d629399/customview-1.0.0/AndroidManifest.xml:20:5-44
MERGED from [androidx.core:core:1.1.0] /Users/akramhussain/.gradle/caches/transforms-2/files-2.1/e9dab9c67c1ee3668e0bbf86c6d8cbd8/core-1.1.0/AndroidManifest.xml:20:5-22:41
MERGED from [androidx.core:core:1.1.0] /Users/akramhussain/.gradle/caches/transforms-2/files-2.1/e9dab9c67c1ee3668e0bbf86c6d8cbd8/core-1.1.0/AndroidManifest.xml:20:5-22:41
MERGED from [androidx.cursoradapter:cursoradapter:1.0.0] /Users/akramhussain/.gradle/caches/transforms-2/files-2.1/fb2fbe77879a57ea0c5dfd6fe59ba874/cursoradapter-1.0.0/AndroidManifest.xml:20:5-44
MERGED from [androidx.cursoradapter:cursoradapter:1.0.0] /Users/akramhussain/.gradle/caches/transforms-2/files-2.1/fb2fbe77879a57ea0c5dfd6fe59ba874/cursoradapter-1.0.0/AndroidManifest.xml:20:5-44
MERGED from [androidx.versionedparcelable:versionedparcelable:1.1.0] /Users/akramhussain/.gradle/caches/transforms-2/files-2.1/78be57497ca2a8dd090798c529f3e53d/versionedparcelable-1.1.0/AndroidManifest.xml:20:5-22:41
MERGED from [androidx.versionedparcelable:versionedparcelable:1.1.0] /Users/akramhussain/.gradle/caches/transforms-2/files-2.1/78be57497ca2a8dd090798c529f3e53d/versionedparcelable-1.1.0/AndroidManifest.xml:20:5-22:41
MERGED from [androidx.lifecycle:lifecycle-runtime:2.1.0] /Users/akramhussain/.gradle/caches/transforms-2/files-2.1/ffa46f3d6480310395b7b525cf59ccde/lifecycle-runtime-2.1.0/AndroidManifest.xml:20:5-44
MERGED from [androidx.lifecycle:lifecycle-runtime:2.1.0] /Users/akramhussain/.gradle/caches/transforms-2/files-2.1/ffa46f3d6480310395b7b525cf59ccde/lifecycle-runtime-2.1.0/AndroidManifest.xml:20:5-44
MERGED from [androidx.lifecycle:lifecycle-viewmodel:2.1.0] /Users/akramhussain/.gradle/caches/transforms-2/files-2.1/64ed055c454b36433d45a77285ee24d6/lifecycle-viewmodel-2.1.0/AndroidManifest.xml:20:5-44
MERGED from [androidx.lifecycle:lifecycle-viewmodel:2.1.0] /Users/akramhussain/.gradle/caches/transforms-2/files-2.1/64ed055c454b36433d45a77285ee24d6/lifecycle-viewmodel-2.1.0/AndroidManifest.xml:20:5-44
MERGED from [androidx.savedstate:savedstate:1.0.0] /Users/akramhussain/.gradle/caches/transforms-2/files-2.1/3819fb4fef2e012192b32762458ba145/savedstate-1.0.0/AndroidManifest.xml:20:5-22:41
MERGED from [androidx.savedstate:savedstate:1.0.0] /Users/akramhussain/.gradle/caches/transforms-2/files-2.1/3819fb4fef2e012192b32762458ba145/savedstate-1.0.0/AndroidManifest.xml:20:5-22:41
MERGED from [androidx.interpolator:interpolator:1.0.0] /Users/akramhussain/.gradle/caches/transforms-2/files-2.1/3a992d8307f21a8f15eb649383ba6a6a/interpolator-1.0.0/AndroidManifest.xml:20:5-44
MERGED from [androidx.interpolator:interpolator:1.0.0] /Users/akramhussain/.gradle/caches/transforms-2/files-2.1/3a992d8307f21a8f15eb649383ba6a6a/interpolator-1.0.0/AndroidManifest.xml:20:5-44
MERGED from [androidx.lifecycle:lifecycle-livedata:2.0.0] /Users/akramhussain/.gradle/caches/transforms-2/files-2.1/63647da4654da12a6f2785cfbbad8123/lifecycle-livedata-2.0.0/AndroidManifest.xml:20:5-44
MERGED from [androidx.lifecycle:lifecycle-livedata:2.0.0] /Users/akramhussain/.gradle/caches/transforms-2/files-2.1/63647da4654da12a6f2785cfbbad8123/lifecycle-livedata-2.0.0/AndroidManifest.xml:20:5-44
MERGED from [androidx.lifecycle:lifecycle-livedata-core:2.0.0] /Users/akramhussain/.gradle/caches/transforms-2/files-2.1/733fc1d306cee2c05d3e1fb0b7527020/lifecycle-livedata-core-2.0.0/AndroidManifest.xml:20:5-44
MERGED from [androidx.lifecycle:lifecycle-livedata-core:2.0.0] /Users/akramhussain/.gradle/caches/transforms-2/files-2.1/733fc1d306cee2c05d3e1fb0b7527020/lifecycle-livedata-core-2.0.0/AndroidManifest.xml:20:5-44
MERGED from [androidx.arch.core:core-runtime:2.0.0] /Users/akramhussain/.gradle/caches/transforms-2/files-2.1/fdd65d8b6066fd289a68b42931dc03a2/core-runtime-2.0.0/AndroidManifest.xml:20:5-44
MERGED from [androidx.arch.core:core-runtime:2.0.0] /Users/akramhussain/.gradle/caches/transforms-2/files-2.1/fdd65d8b6066fd289a68b42931dc03a2/core-runtime-2.0.0/AndroidManifest.xml:20:5-44
INJECTED from /Users/akramhussain/Desktop/Work/Android/Android/EposApp/app/src/main/AndroidManifest.xml
INJECTED from /Users/akramhussain/Desktop/Work/Android/Android/EposApp/app/src/main/AndroidManifest.xml
	android:targetSdkVersion
		INJECTED from /Users/akramhussain/Desktop/Work/Android/Android/EposApp/app/src/main/AndroidManifest.xml
		ADDED from /Users/akramhussain/Desktop/Work/Android/Android/EposApp/app/src/main/AndroidManifest.xml
		INJECTED from /Users/akramhussain/Desktop/Work/Android/Android/EposApp/app/src/main/AndroidManifest.xml
	android:minSdkVersion
		INJECTED from /Users/akramhussain/Desktop/Work/Android/Android/EposApp/app/src/main/AndroidManifest.xml
		ADDED from /Users/akramhussain/Desktop/Work/Android/Android/EposApp/app/src/main/AndroidManifest.xml
		INJECTED from /Users/akramhussain/Desktop/Work/Android/Android/EposApp/app/src/main/AndroidManifest.xml
